Working with Big Data
…
## # A tibble: 6 x 7
##   HISTID                              byear bmonth dyear dmonth death_age weight
##   <chr>                               <dbl>  <dbl> <dbl>  <dbl>     <dbl>  <dbl>
## 1 DE89CE63-6C35-4805-B6DA-76FBF2F5C0  1854      7  1976      1       121     NA
## 2 BE0B03E1-EA5E-40A2-AC31-7394BAFA9D  1858     12  1976      2       117     NA
## 3 38BD2A00-D08E-449C-BB3D-B8C6F1B5C1  1860      6  1984      4       123     NA
## 4 19F7839D-D84A-4043-BD90-3DF4D9224C  1861     10  1976      5       114     NA
## 5 79640EED-52BB-4007-BA04-B05FE84207  1861      4  1976     11       115     NA
## 6 3378D6E9-2F1B-4E6D-BF7A-7A420F1FEF  1862      6  1977      3       114     NA

## # A tibble: 82 x 2
##    byear avg_age_death
##    <dbl>         <dbl>
##  1  1854          121 
##  2  1858          117 
##  3  1860          123 
##  4  1861          114.
##  5  1862          116 
##  6  1863          114.
##  7  1864          112.
##  8  1865          114.
##  9  1866          112.
## 10  1868          109.
## #  with 72 more rows
…
